[{
	"_id": {
		"$oid": "60fc741be10f01238c711bda"
	},
	"hits": [
		"Bohemian Rhapsody",
		"We Are the Champions",
		"Show must go on"
	],
	"name": "Queen",
	"bornYear": 1970,
	"country": "British",
	"albums": [
		{
			"_id": {
				"$oid": "60fc88fff2fedf21d8cbb93e"
			},
			"title": "Queen",
			"releasedYear": 1973,
			"genre": "Hard rock, heavy metal, progressive rock",
			"producer": "John Anthony, Roy Thomas Baker, Queen"
		},
		{
			"_id": {
				"$oid": "60fc8964f2fedf21d8cbb941"
			},
			"title": "Queen II",
			"releasedYear": 1974,
			"genre": "Art rock, hard rock, glam rock, heavy metal, progressive rock",
			"producer": "Roy Thomas Baker, Robin Geoffrey Cable, Queen"
		},
		{
			"_id": {
				"$oid": "60fc89f2f2fedf21d8cbb944"
			},
			"title": "Sheer Heart Attack",
			"releasedYear": 1974,
			"genre": "Hard rock, glam rock",
			"producer": "Roy Thomas Baker, Queen"
		}
	],
	"__v": 3
},
{
	"_id": {
		"$oid": "60fc74f0e10f01238c711bdd"
	},
	"hits": [
		"Yuve Yuve",
		"Wolf Totem"
	],
	"name": "The HU",
	"bornYear": 2016,
	"country": "Mongolia",
	"albums": [
		{
			"_id": {
				"$oid": "60fc8a8bf2fedf21d8cbb949"
			},
			"title": "The Gereg",
			"releasedYear": 2019,
			"genre": "Mongolian folk, heavy metal",
			"producer": "The Hu, B. Dashdondog"
		}
	],
	"__v": 1
},
{
	"_id": {
		"$oid": "60fc760fe10f01238c711bdf"
	},
	"hits": [
		"Chop Suey",
		"Hypnotize",
		"Toxicity"
	],
	"name": "System of a Down",
	"bornYear": 1994,
	"country": "Armenian-American",
	"albums": [
		{
			"_id": {
				"$oid": "60fc8ae9f2fedf21d8cbb94d"
			},
			"title": "System of a Down",
			"releasedYear": 1998,
			"genre": "nu metal, alternative metal",
			"producer": "Rick Rubin, System of a Down"
		},
		{
			"_id": {
				"$oid": "60fc8b17f2fedf21d8cbb950"
			},
			"title": "Toxicity",
			"releasedYear": 2001,
			"genre": "nu metal, alternative metal",
			"producer": "Rick Rubin, Daron Malakian, Serj Tankian"
		},
		{
			"_id": {
				"$oid": "60fc8b45f2fedf21d8cbb953"
			},
			"title": "Steal This Album!",
			"releasedYear": 2002,
			"genre": "nu metal, alternative metal",
			"producer": "Rick Rubin, Daron Malakian"
		},
		{
			"_id": {
				"$oid": "60fc8b63f2fedf21d8cbb956"
			},
			"title": "Mezmerize ",
			"releasedYear": 2005,
			"genre": "nu metal, alternative metal",
			"producer": "Rick Rubin, Daron Malakian"
		},
		{
			"_id": {
				"$oid": "60fc8b8cf2fedf21d8cbb959"
			},
			"title": "Hypnotize",
			"releasedYear": 2005,
			"genre": "heavy metal, hard rock",
			"producer": "Rick Rubin, Daron Malakian"
		}
	],
	"__v": 5
},
{
	"_id": {
		"$oid": "60fc7ae160f33337c02a17fb"
	},
	"hits": [
		"In the end",
		"Faint",
		"Numb"
	],
	"name": "Linkin park",
	"bornYear": 1996,
	"country": "United States",
	"albums": [
		{
			"_id": {
				"$oid": "60fc80a315088205bcbef3ba"
			},
			"title": "Hybrid Theory",
			"releasedYear": 2000,
			"genre": "nu metal, alternative rock, rap metal",
			"producer": "Don Gilmore"
		},
		{
			"_id": {
				"$oid": "60fc812015088205bcbef3be"
			},
			"title": "Meteora",
			"releasedYear": 2003,
			"genre": "nu metal, alternative rock, rap metal, rap rock",
			"producer": "Don Gilmore, Linkin Park"
		}
	],
	"__v": 6
}]

